﻿  SOIL.c
..\..\src\SOIL.c(1719): warning C4018: '<=' : incompatibilité signed/unsigned
..\..\src\SOIL.c(1729): warning C4018: '<' : incompatibilité signed/unsigned
..\..\src\SOIL.c(1867): warning C4267: 'fonction' : conversion de 'size_t' en 'int', perte possible de données
..\..\src\SOIL.c(1841): warning C4996: 'fopen': This function or variable may be unsafe. Consider using fopen_s instead. To disable deprecation, use _CRT_SECURE_NO_WARNINGS. See online help for details.
  C:\Program Files (x86)\Windows Kits\10\Include\10.0.10240.0\ucrt\stdio.h(205): note: voir la déclaration de 'fopen'
  SOIL.vcxproj -> D:\Mes Documents\MA2\Virtual Reality\Project\Simple OpenGL Image Library\projects\VC9\x64\Release\SOIL.lib
